CSHL Computational Genomics 2023 - 3 Tidyverse and data viz
…
library(readr)
teams <- read_csv(here("data", "team_standings.csv"))

Rows: 32 Columns: 2
── Column specification ────────────────────────────────────────────────────────
Delimiter: ","
chr (1): Team
dbl (1): Standing

ℹ Use `spec()` to retrieve the full column specification for this data.
ℹ Specify the column types or set `show_col_types = FALSE` to quiet this message.

teams

# A tibble: 32 × 2
   Standing Team       
      <dbl> <chr>      
 1        1 Spain      
 2        2 Netherlands
 3        3 Germany    
 4        4 Uruguay    
 5        5 Argentina  
 6        6 Brazil     
 7        7 Ghana      
 8        8 Paraguay   
 9        9 Japan      
10       10 Chile      
# ℹ 22 more rows
…
Warning: Returning more (or less) than 1 row per `summarise()` group was deprecated in
dplyr 1.1.0.
ℹ Please use `reframe()` instead.
ℹ When switching from `summarise()` to `reframe()`, remember that `reframe()`
  always returns an ungrouped data frame and adjust accordingly.

`summarise()` has grouped output by 'year'. You can override using the
`.groups` argument.

# A tibble: 131,860 × 12
# Groups:   year [19]
    year city   tmpd dewpoint date        pm25 pm10tmean2 o3tmean2 no2tmean2
   <dbl> <chr> <dbl>    <dbl> <date>     <dbl>      <dbl>    <dbl>     <dbl>
 1  2005 chic     35     30.1 2005-12-31  16.2       23.5     2.53      13.2
 2  2005 chic     36     31   2005-12-30  16.2       19.2     3.03      22.8
 3  2005 chic     35     29.4 2005-12-29  16.2       23.5     6.79      20.0
 4  2005 chic     37     34.5 2005-12-28  16.2       27.5     3.26      19.3
 5  2005 chic     40     33.6 2005-12-27  16.2       27       4.47      23.5
 6  2005 chic     35     29.6 2005-12-26  16.2        8.5    14.0       16.8
 7  2005 chic     35     32.1 2005-12-25  16.2        8      14.4       13.8
 8  2005 chic     37     35.2 2005-12-24  16.2       25.2     1.77      32.0
 9  2005 chic     41     32.6 2005-12-23  16.2       34.5     6.91      29.1
10  2005 chic     22     23.3 2005-12-22  16.2       42.5     5.39      33.7
# ℹ 131,850 more rows
# ℹ 3 more variables: pm25detrend <dbl>, o3 <dbl>, no2 <dbl>
…
